<?xml version="1.0" encoding="UTF-8" standalone="no"?>
<svg
   xmlns:dc="http://purl.org/dc/elements/1.1/"
   xmlns:cc="http://creativecommons.org/ns#"
   xmlns:rdf="http://www.w3.org/1999/02/22-rdf-syntax-ns#"
   xmlns:svg="http://www.w3.org/2000/svg"
   xmlns="http://www.w3.org/2000/svg"
   xmlns:xlink="http://www.w3.org/1999/xlink"
   xmlns:sodipodi="http://sodipodi.sourceforge.net/DTD/sodipodi-0.dtd"
   xmlns:inkscape="http://www.inkscape.org/namespaces/inkscape"
   width="480"
   height="360"
   viewBox="0 0 480 360"
   version="1.1"
   id="svg8"
   inkscape:version="1.0.1 (3bc2e813f5, 2020-09-07)"
   sodipodi:docname="thumbnail-template.svg">
  <defs
     id="defs2"><pattern
   inkscape:collect="always"
   xlink:href="#pattern3040"
   id="pattern4013"
   patternTransform="translate(-169.27036,224.28128)" />
<pattern
   inkscape:collect="always"
   xlink:href="#pattern3040"
   id="pattern4011"
   patternTransform="matrix(0.37683583,-0.10063423,0.10063423,0.37683583,400.82015,761.90673)" />

    
    
    
  
      
    
        
      
          
          
          
          
          
          
        <style
   id="style1223">.cls-1,.cls-2{fill:#4cbf56;stroke:#45993d;stroke-linecap:round;stroke-linejoin:round;}.cls-2{stroke-width:1.5px;}</style>
<linearGradient
   id="WhiteTransparent"
   gradientUnits="userSpaceOnUse">
  <stop
     style="stop-color:white;stop-opacity:1"
     offset="0"
     id="stop7" />
  <stop
     style="stop-color:white;stop-opacity:0"
     offset="1"
     id="stop9" />
</linearGradient>
<linearGradient
   id="BlackTransparent"
   gradientUnits="userSpaceOnUse">
  <stop
     style="stop-color:black;stop-opacity:1"
     offset="0"
     id="stop12" />
  <stop
     style="stop-color:black;stop-opacity:0"
     offset="1"
     id="stop14" />
</linearGradient>
<linearGradient
   id="liquidShade"
   xlink:href="#BlackTransparent"
   x1="0"
   y1="128"
   x2="0"
   y2="64"
   gradientUnits="userSpaceOnUse" />
<linearGradient
   id="liquidSpecular"
   xlink:href="#WhiteTransparent"
   x1="0"
   y1="128"
   x2="0"
   y2="76"
   gradientUnits="userSpaceOnUse" />
<linearGradient
   id="sideSpecular"
   xlink:href="#WhiteTransparent"
   x1="80"
   y1="20"
   x2="60"
   y2="40"
   gradientUnits="userSpaceOnUse" />
<linearGradient
   id="IcecapTip"
   xlink:href="#WhiteTransparent"
   x1="60"
   y1="20"
   x2="90"
   y2="50"
   gradientUnits="userSpaceOnUse" />
<linearGradient
   id="shinySpecular"
   xlink:href="#WhiteTransparent"
   x1="33"
   y1="35"
   x2="58"
   y2="60"
   gradientUnits="userSpaceOnUse" />
<clipPath
   clipPathUnits="userSpaceOnUse"
   id="clipoutline1">
  <path
     id="outline1"
     d="M 54.1,12.5 12.9,54.7 C -2.7,70.3 23,69 32.3,74.9 36.6,77.7 18.5,81.3 22.2,85 c 3.6,3.7 21.7,7.1 25.3,10.7 3.6,3.7 -7.3,7.6 -3.7,11.3 3.5,3.7 11.9,0.2 13.4,8.6 1.1,6.2 15.4,3.1 21.8,-2.2 4,-3.4 -6.9,-3.4 -3.3,-7.1 9,-9.1 17,-4.1 20.3,-12.5 1.8,-4.5 -13.6,-7.7 -9.5,-10.6 9.8,-6.9 45.8,-10.4 29.2,-27 L 73,12.5 c -5.3,-5 -14,-5 -18.9,0 z m -9.9,64.7 c 0.9,0 30.8,4 19.3,7.1 -4.4,1.2 -24.6,-7.1 -19.3,-7.1 z m 57.2,16.6 c 0,2.1 16.3,3.3 15.4,-0.5 -1.3,-6.4 -13.6,-5.9 -15.4,0.5 z m -69.5,11.1 c 3.7,3.2 9.3,-0.7 11.1,-5.2 -3.6,-4.7 -16.9,0.3 -11.1,5.2 z m 67.5,-6.7 c -4.6,4.2 0.8,8.6 5.3,5.7 1.2,-0.8 -0.1,-4.7 -5.3,-5.7 z" />
</clipPath>
<filter
   id="ShadowBlur"
   filterUnits="userSpaceOnUse"
   x="0"
   y="0">
  <feGaussianBlur
     in="SourceAlpha"
     stdDeviation="3"
     result="blur"
     id="feGaussianBlur24" />
</filter>
<linearGradient
   gradientUnits="userSpaceOnUse"
   id="linearGradient5785">
  <stop
     id="stop5787"
     offset="0"
     style="stop-color:#c0cdf9;stop-opacity:1" />
  <stop
     id="stop5789"
     offset="1"
     style="stop-color:#07092d;stop-opacity:0.28804347" />
</linearGradient>
<clipPath
   clipPathUnits="userSpaceOnUse"
   id="clipPath9086">
  <use
     id="use9088"
     xlink:href="#outline1"
     class="low-specularity"
     style="fill:#ffffff;fill-opacity:1"
     x="0"
     y="0"
     width="400"
     height="300"
     transform="translate(1.009546e-6)" />
</clipPath>
<linearGradient
   gradientUnits="userSpaceOnUse"
   y2="60"
   x2="58"
   y1="35"
   x1="33"
   xlink:href="#WhiteTransparent"
   id="shinySpecular-4"
   gradientTransform="matrix(1.009184,0,0,1.009184,-0.3890738,-0.3831933)" />
<linearGradient
   id="IcecapTip-9"
   xlink:href="#WhiteTransparent"
   x1="60"
   y1="20"
   x2="90"
   y2="50"
   gradientUnits="userSpaceOnUse" />
<clipPath
   clipPathUnits="userSpaceOnUse"
   id="clipoutline1-3">
  <path
     id="outline1-6"
     d="M 54.1,12.5 12.9,54.7 C -2.7,70.3 23,69 32.3,74.9 36.6,77.7 18.5,81.3 22.2,85 c 3.6,3.7 21.7,7.1 25.3,10.7 3.6,3.7 -7.3,7.6 -3.7,11.3 3.5,3.7 11.9,0.2 13.4,8.6 1.1,6.2 15.4,3.1 21.8,-2.2 4,-3.4 -6.9,-3.4 -3.3,-7.1 9,-9.1 17,-4.1 20.3,-12.5 1.8,-4.5 -13.6,-7.7 -9.5,-10.6 9.8,-6.9 45.8,-10.4 29.2,-27 L 73,12.5 c -5.3,-5 -14,-5 -18.9,0 z m -9.9,64.7 c 0.9,0 30.8,4 19.3,7.1 -4.4,1.2 -24.6,-7.1 -19.3,-7.1 z m 57.2,16.6 c 0,2.1 16.3,3.3 15.4,-0.5 -1.3,-6.4 -13.6,-5.9 -15.4,0.5 z m -69.5,11.1 c 3.7,3.2 9.3,-0.7 11.1,-5.2 -3.6,-4.7 -16.9,0.3 -11.1,5.2 z m 67.5,-6.7 c -4.6,4.2 0.8,8.6 5.3,5.7 1.2,-0.8 -0.1,-4.7 -5.3,-5.7 z" />
</clipPath>
<filter
   id="ShadowBlur-0"
   filterUnits="userSpaceOnUse"
   x="0"
   y="0">
  <feGaussianBlur
     in="SourceAlpha"
     stdDeviation="3"
     result="blur"
     id="feGaussianBlur24-6" />
</filter>
<clipPath
   clipPathUnits="userSpaceOnUse"
   id="clipPath9086-1">
  <use
     id="use9088-8"
     xlink:href="#outline1-6"
     class="low-specularity"
     style="fill:#ffffff;fill-opacity:1"
     x="0"
     y="0"
     width="400"
     height="300"
     transform="translate(1.009546e-6)" />
</clipPath>
<linearGradient
   gradientUnits="userSpaceOnUse"
   y2="60"
   x2="58"
   y1="35"
   x1="33"
   xlink:href="#WhiteTransparent"
   id="shinySpecular-4-7"
   gradientTransform="matrix(1.009184,0,0,1.009184,-0.3890738,-0.3831933)" />
<filter
   style="color-interpolation-filters:sRGB"
   inkscape:label="Drop Shadow"
   id="filter2957">
  <feFlood
     flood-opacity="1"
     flood-color="rgb(19,21,234)"
     result="flood"
     id="feFlood2947" />
  <feComposite
     in="flood"
     in2="SourceGraphic"
     operator="out"
     result="composite1"
     id="feComposite2949" />
  <feGaussianBlur
     in="composite1"
     stdDeviation="2"
     result="blur"
     id="feGaussianBlur2951" />
  <feOffset
     dx="3"
     dy="-3"
     result="offset"
     id="feOffset2953" />
  <feComposite
     in="offset"
     in2="SourceGraphic"
     operator="atop"
     result="composite2"
     id="feComposite2955" />
</filter>
<clipPath
   clipPathUnits="userSpaceOnUse"
   id="clipPath3036">
  <rect
     style="fill:#0000d4;fill-opacity:1;stroke:none;stroke-width:2.5;stroke-linecap:round;stroke-linejoin:round;stroke-miterlimit:4;stroke-dasharray:none;stroke-dashoffset:0;stroke-opacity:1;paint-order:markers stroke fill;stop-color:#000000"
     id="rect3038"
     width="35.908916"
     height="35.90892"
     x="28.059149"
     y="53.336777" />
</clipPath>
<pattern
   patternUnits="userSpaceOnUse"
   width="135.71874"
   height="135.71874"
   patternTransform="translate(106.05033,201.58782)"
   id="pattern3040">
  <g
     id="g3032"
     clip-path="url(#clipPath3036)"
     transform="matrix(3.7795276,0,0,3.7795276,-106.05033,-201.58782)">
    <rect
       style="fill:#0e27ee;fill-opacity:1;stroke:none;stroke-width:3.01496;stroke-linecap:round;stroke-linejoin:round;stroke-miterlimit:4;stroke-dasharray:none;stroke-opacity:1;paint-order:markers stroke fill;stop-color:#000000"
       id="rect2997"
       width="35.908916"
       height="35.908916"
       x="28.059147"
       y="53.336777" />
    <path
       id="path2999"
       style="fill:none;fill-opacity:1;stroke:#0000d4;stroke-width:2.5;stroke-linecap:round;stroke-linejoin:round;stroke-miterlimit:4;stroke-dasharray:none;stroke-opacity:1;paint-order:markers stroke fill;stop-color:#000000"
       d="m 28.059145,62.314007 c 3.19829,0 5.778938,3.38687 8.977229,3.38687 3.198291,0 5.778939,-3.38687 8.97723,-3.38687"
       sodipodi:nodetypes="cac" />
    <path
       id="path3014"
       style="fill:none;fill-opacity:1;stroke:#0000d4;stroke-width:2.5;stroke-linecap:round;stroke-linejoin:round;stroke-miterlimit:4;stroke-dasharray:none;stroke-opacity:1;paint-order:markers stroke fill;stop-color:#000000"
       d="m 54.990833,65.700877 c 3.198291,0 5.778939,-3.38687 8.97723,-3.38687"
       sodipodi:nodetypes="cc" />
    <path
       id="path3018"
       style="fill:none;fill-opacity:1;stroke:#0000d4;stroke-width:2.5;stroke-linecap:round;stroke-linejoin:round;stroke-miterlimit:4;stroke-dasharray:none;stroke-opacity:1;paint-order:markers stroke fill;stop-color:#000000"
       d="m 28.059145,80.268463 c 3.19829,0 5.778938,3.38687 8.977229,3.38687 3.198291,0 5.778939,-3.38687 8.97723,-3.38687"
       sodipodi:nodetypes="cac" />
    <path
       id="path3020"
       style="fill:none;fill-opacity:1;stroke:#0000d4;stroke-width:2.5;stroke-linecap:round;stroke-linejoin:round;stroke-miterlimit:4;stroke-dasharray:none;stroke-opacity:1;paint-order:markers stroke fill;stop-color:#000000"
       d="m 46.013604,80.268463 c 3.19829,0 5.778938,3.38687 8.977229,3.38687 3.198291,0 5.778939,-3.38687 8.97723,-3.38687"
       sodipodi:nodetypes="cac" />
    <circle
       id="path3024"
       style="fill:#0000d4;fill-opacity:1;stroke:none;stroke-width:0.0906239"
       cx="50.502216"
       cy="64.007439"
       r="1.2844346" />
  </g>
</pattern>
</defs>
  <sodipodi:namedview
     id="base"
     pagecolor="#ffffff"
     bordercolor="#666666"
     borderopacity="1.0"
     inkscape:pageopacity="0"
     inkscape:pageshadow="2"
     inkscape:zoom="1.979899"
     inkscape:cx="272.27829"
     inkscape:cy="188.37655"
     inkscape:document-units="px"
     inkscape:current-layer="layer1"
     inkscape:document-rotation="0"
     showgrid="false"
     inkscape:window-width="1920"
     inkscape:window-height="1023"
     inkscape:window-x="0"
     inkscape:window-y="0"
     inkscape:window-maximized="1"
     inkscape:pagecheckerboard="true"
     units="px"
     inkscape:snap-page="true"
     borderlayer="true"
     showguides="true"
     inkscape:guide-bbox="true"
     inkscape:snap-smooth-nodes="true"
     inkscape:snap-midpoints="true"
     inkscape:snap-object-midpoints="true"
     inkscape:snap-center="true" />
  <metadata
     id="metadata5">
    <rdf:RDF>
      <cc:Work
         rdf:about="">
        <dc:format>image/svg+xml</dc:format>
        <dc:type
           rdf:resource="http://purl.org/dc/dcmitype/StillImage" />
        <dc:title></dc:title>
      </cc:Work>
    </rdf:RDF>
  </metadata>
  <g
     inkscape:label="Layer 1"
     inkscape:groupmode="layer"
     id="layer1">
    <rect
       style="fill:url(#pattern4011);fill-opacity:1;stroke-width:6.85406;stroke-linecap:round;stroke-linejoin:round;stop-color:#000000"
       id="rect2625"
       width="480"
       height="102.35052"
       x="-1.3833171e-06"
       y="6.5789845e-07"
       inkscape:transform-center-x="-240"
       inkscape:transform-center-y="51.175258" />
    <g
       id="g2619"
       transform="matrix(4.2638136,-0.4505009,0.4505009,4.2638136,-167.34507,-375.93716)"
       inkscape:transform-center-x="-378.13097"
       inkscape:transform-center-y="210.70977">
      <g
         id="g4087"
         transform="matrix(0.8531358,0,0,0.8531358,20.675046,28.57834)">
        <g
           id="g1384"
           transform="matrix(1.1042898,0.93173582,-0.93173582,1.1042898,119.62839,-127.28189)">
          <path
             d="m 118.1024,148.61066 c -2.06974,0.36065 -5.10487,1.43089 -6.98297,2.23348 -1.18049,0.50446 -1.07851,2.22921 0.6276,1.93559 1.74937,-0.30107 6.28335,-1.33032 7.28406,-3.02432 0.37743,-0.63802 -0.33775,-1.24772 -0.92869,-1.14475 z"
             id="arm"
             stroke="#001026"
             stroke-width="0.3175"
             fill="#ffab19"
             stroke-linecap="round"
             stroke-linejoin="round"
             style="fill-rule:evenodd"
             sodipodi:nodetypes="sssss" />
          <g
             id="body-and-leg"
             style="fill-rule:evenodd"
             transform="matrix(-0.26458333,0,0,0.26458333,131.47687,132.78352)">
            <path
   d="m 46.2,76.7 c 1.2,-0.9 2.4,-2.4 4,-4.7 1.3,-1.9 2.7,-5.6 2.7,-5.6 0.9,-2.5 1.5,-7.3 -1.8,-7.2 -2.2,0.1 -4.2,-0.2 -7.6,-0.7 -6,-1.2 -7.1,-2 -9.6,2.1 -2.7,4.8 -9.6,8.3 -1.1,16.6 6.159945,5.069753 8.915619,3.481776 13.4,-0.5 z"
   id="body"
   stroke="#001026"
   stroke-width="1.2"
   fill="#ffab19"
   stroke-linecap="round"
   stroke-linejoin="round"
   sodipodi:nodetypes="cccccccc" />

            <path
   d="m 50.6,70 c 0,0 1.9,-2.5 -2.4,-5.2 -4.5,-2.9 -6.2,0.3 -8,2.7 -2,3.1 0,4.6 2,6.4 1.6,1.5 3.1,2.7 3.1,2.7 0,0 3.1,-2.1 5.3,-6.6 z"
   id="tummy"
   fill="#ffffff"
   stroke-width="1"
   stroke="none" />

          </g>
          <g
             id="head"
             style="fill-rule:evenodd"
             transform="matrix(-0.25148244,0.08222483,0.08222483,0.25148244,128.31194,129.17298)">
            <path
   d="M 53.1,9 C 50.8,8.6 48.4,8.4 45.6,8.6 40.9,8.8 36.4,10.5 36.4,10.5 L 24.3,2.6 C 23.9,2.4 23.4,2.7 23.5,3.1 L 25.6,21 C 26.2,20.2 15,33.8 22.1,45.2 29.2,56.6 44.3,61.7 63.1,58 81.9,54.3 86.3,43.5 85.1,37.8 83.9,32.1 76.8,30 76.8,30 c 0,0 -0.1,-4.5 -3.3,-10 -1.9,-3.3 -8.3,-8 -8.3,-8 L 62.6,1.3 C 62.5,0.9 62,0.8 61.7,1 Z"
   stroke="#001026"
   stroke-width="1.2"
   fill="#ffab19"
   id="path949" />

            <path
   d="m 76.5,30.4 c 0,0 6.9,1.8 8.1,7.5 1.2,5.7 -3.6,16 -22.2,19.6 -24.2,5 -35.7,-9.4 -29,-20 6.7,-10.7 18.2,-1.6 26.6,-2.2 7.2,-0.5 8,-6.8 16.5,-4.9 z"
   id="face"
   fill="#ffffff"
   stroke-width="1"
   stroke="none" />

            <path
   d="m 45,41.1 c 0,-0.4 0.4,-0.7 0.8,-0.6 1.9,0.7 7.3,2.3 13.3,2.7 5.4,0.3 8.6,0 10.1,-0.3 0.5,-0.1 0.9,0.4 0.7,0.9 C 69,46.5 65.2,54 54.7,53.4 45.6,52.4 44.7,46 45,41.1 Z"
   id="mouth"
   stroke="#001026"
   stroke-width="1.2"
   fill="#ffffff"
   stroke-linecap="round"
   stroke-linejoin="round" />

            <path
   d="m 83,35.4 c 0,0 7.2,-0.1 11.9,-3.9"
   id="whisker"
   stroke="#001026"
   stroke-width="1.2"
   stroke-linecap="round"
   stroke-linejoin="round"
   fill="none" />

            <path
   d="m 83.4,41.3 c 0,0 3.9,1.9 10.2,1.4"
   id="path954"
   stroke="#001026"
   stroke-width="1.2"
   stroke-linecap="round"
   stroke-linejoin="round"
   fill="none" />

            <path
   d="m 59.6,32.7 c 2.1,0 4.3,0.2 4.4,0.9 0.1,1.4 -1.4,4.2 -3,4.3 -1.8,0.2 -6,-2.3 -6,-3.9 -0.1,-1.2 2.6,-1.3 4.6,-1.3 z"
   id="nose"
   stroke="#001026"
   stroke-width="1.2"
   fill="#001026"
   stroke-linecap="round"
   stroke-linejoin="round" />

            <path
   d="m 14.6,31.2 c 0,0 8.6,2.8 12.1,5.9"
   id="path957"
   stroke="#001026"
   stroke-width="1.2"
   stroke-linecap="round"
   stroke-linejoin="round"
   fill="none" />

            <path
   d="m 15.3,41.2 c 0,0 7.4,1.1 11.7,-0.6"
   id="path959"
   stroke="#001026"
   stroke-width="1.2"
   stroke-linecap="round"
   stroke-linejoin="round"
   fill="none" />

            <g
   id="eye">
              <path
   d="m 71.4,21 c 2.9,4.5 3,9.6 0.2,11.4 -2.8,1.8 -7.4,-0.3 -10.4,-4.8 -2.9,-4.5 -3,-9.6 -0.2,-11.4 2.8,-1.9 7.5,0.3 10.4,4.8 z"
   id="pupil"
   stroke="#001026"
   stroke-width="1.2"
   fill="#ffffff"
   stroke-linecap="round"
   stroke-linejoin="round" />

              <path
   d="m 69.921471,29.390388 c 0,1.1 -0.8,2 -1.8,2 -1,0 -1.8,-0.9 -1.8,-2 0,-1.1 0.8,-2 1.8,-2 1,0 1.8,0.9 1.8,2"
   id="path962"
   fill="#001026"
   stroke-width="1"
   stroke="none" />

            </g>

            <g
   id="g969">
              <path
   d="m 46.6,23.8 c 3,4.4 2.8,9.8 0.1,11.7 C 43.4,37.4 39,36 36,31.6 32.9,27.2 32.7,21.5 35.8,19.3 c 3.1,-2.3 7.8,0.1 10.8,4.5 z"
   stroke="#001026"
   stroke-width="1.2"
   fill="#ffffff"
   stroke-linecap="round"
   stroke-linejoin="round"
   id="path965" />

              <path
   d="m 45.701837,32.383161 c 0,1.1 -0.8,2 -1.8,2 -1,0 -1.8,-0.9 -1.8,-2 0,-1.1 0.8,-2 1.8,-2 1,0.1 1.8,0.9 1.8,2"
   id="path967"
   fill="#001026"
   stroke-width="1"
   stroke="none" />

            </g>

          </g>
        </g>
        <g
           id="g4091"
           transform="translate(0.05744996,-0.54374127)">
          <path
             id="path4015"
             style="fill:#001026;fill-opacity:1;stroke-width:0.264583"
             sodipodi:type="inkscape:offset"
             inkscape:radius="0.46105406"
             inkscape:original="M 102.90625 147.16992 C 101.89934 147.34411 100.96795 147.88425 100.375 148.75 L 90.507812 163.15039 C 87.327483 168.88919 94.049916 167.10859 97.228516 168.04492 C 98.465516 168.93385 93.532381 170.6141 94.769531 171.50391 C 96.006531 172.39281 101.47605 172.45906 102.71484 173.34766 C 103.95184 174.23657 100.95441 175.93336 102.19141 176.82227 C 103.42842 177.71118 105.6767 176.27143 106.56445 178.66797 C 107.19793 180.3807 111.07193 178.66294 112.79883 176.86719 C 113.66026 175.61011 110.62083 176.24447 111.48242 174.98828 C 113.62478 171.86322 116.35252 173.1386 116.77734 170.30859 C 116.98712 168.91017 112.57802 168.94399 113.44141 167.6875 C 116.1519 165.39599 126.38614 162.4207 120.56836 158.33594 L 105.88477 147.78516 C 104.99509 147.18718 103.91319 146.99578 102.90625 147.16992 z M 120.27539 168.18164 C 119.304 168.38636 118.42801 169.05448 118.32617 170.03711 C 118.43293 170.64719 122.99688 170.25943 122.79492 169.10547 C 122.31249 168.23478 121.24679 167.97695 120.27539 168.18164 z M 117.98242 171.38867 C 116.82561 172.8597 118.56983 173.84054 119.7832 172.80859 C 120.03112 172.4499 119.53429 171.43238 117.98242 171.38867 z M 99.945312 174.4668 C 98.595803 174.77759 97.306001 176.01894 98.644531 176.82227 C 99.870131 177.55644 101.312 176.11886 101.58008 174.74805 C 101.18282 174.37618 100.55872 174.32554 99.945312 174.4668 z "
             d="m 102.82812,146.71484 c -1.1176,0.19334 -2.16436,0.7977 -2.833979,1.77539 l -9.867188,14.40039 a 0.46110016,0.46110016 0 0 0 -0.02148,0.0371 c -0.823563,1.4861 -1.076582,2.57309 -0.771485,3.43165 0.305098,0.85855 1.138394,1.27829 2.044922,1.48828 1.745889,0.40441 4.069195,0.25269 5.517578,0.61523 -0.01815,0.0291 -0.0057,0.0193 -0.04492,0.0625 -0.204121,0.22477 -0.653215,0.54988 -1.115234,0.87109 -0.462019,0.32121 -0.937216,0.63762 -1.271484,1.00586 -0.167134,0.18413 -0.322244,0.39041 -0.353516,0.68555 -0.03127,0.29514 0.147152,0.6173 0.388672,0.79102 0.437799,0.3146 1.037906,0.46569 1.765625,0.61523 0.727719,0.14954 1.571723,0.2693 2.410156,0.38867 0.838433,0.11938 1.670779,0.23829 2.355469,0.37891 0.68469,0.14062 1.23273,0.33086 1.41406,0.46094 0.0906,0.0651 0.10172,0.0968 0.10938,0.12304 0.008,0.0263 0.0115,0.072 -0.0156,0.16407 -0.0542,0.18423 -0.24674,0.49319 -0.46679,0.8164 -0.0461,0.0676 -0.076,0.15509 -0.12305,0.22461 0.0199,-0.0742 0.0693,-0.13991 0.084,-0.21484 a 0.46110016,0.46110016 0 0 0 -0.13867,-0.42383 c -0.55789,-0.52224 -1.3492,-0.55655 -2.052733,-0.39453 -0.774273,0.17831 -1.505804,0.58334 -1.929688,1.17187 -0.211941,0.29427 -0.348364,0.66909 -0.271484,1.0586 0.07688,0.3895 0.36001,0.72414 0.767578,0.96875 a 0.46110016,0.46110016 0 0 0 0,0.002 c 0.794982,0.47622 1.708647,0.23063 2.351567,-0.28516 0.28216,-0.22636 0.51459,-0.51743 0.71875,-0.82421 -0.0231,0.15428 -0.0602,0.30834 -0.0117,0.4746 0.07,0.24016 0.2364,0.45614 0.45508,0.61329 0.82179,0.59053 1.80151,0.39694 2.55859,0.44335 0.37854,0.0232 0.69921,0.0869 0.96094,0.2461 0.26173,0.15922 0.49671,0.41581 0.6914,0.9414 0.22011,0.5951 0.79143,0.92854 1.38086,0.99219 0.58943,0.0636 1.23833,-0.0669 1.91016,-0.30078 1.34366,-0.4677 2.77509,-1.36294 3.70703,-2.33203 a 0.46110016,0.46110016 0 0 0 0.0488,-0.0606 c 0.1383,-0.20182 0.23403,-0.40646 0.23633,-0.64453 0.002,-0.23806 -0.12408,-0.47103 -0.26954,-0.60351 -0.29091,-0.26496 -0.60664,-0.31674 -0.8789,-0.39453 -0.2368,-0.0677 -0.38974,-0.13673 -0.44531,-0.16407 0.008,-0.0219 4e-5,-0.0106 0.041,-0.0703 a 0.46110016,0.46110016 0 0 0 0,-0.002 c 1.00304,-1.46314 2.07405,-1.85412 3.08984,-2.28516 0.5079,-0.21552 1.0107,-0.43544 1.4336,-0.83203 0.4229,-0.39659 0.72799,-0.96975 0.8457,-1.75391 0.0438,-0.29183 -0.0453,-0.58922 -0.20117,-0.80273 -0.15584,-0.21351 -0.3594,-0.36242 -0.57813,-0.48828 -0.43745,-0.25172 -0.96058,-0.41686 -1.44335,-0.57813 -0.48277,-0.16127 -0.92906,-0.32768 -1.12305,-0.45898 -0.0685,-0.0464 -0.064,-0.0499 -0.0703,-0.0566 0.61695,-0.50444 1.69968,-1.10472 2.91601,-1.75196 1.24891,-0.66456 2.61555,-1.38251 3.73828,-2.17968 1.12274,-0.79717 2.04435,-1.67004 2.27149,-2.76953 0.11357,-0.54975 0.0199,-1.14376 -0.29883,-1.70313 -0.31818,-0.55843 -0.84354,-1.09144 -1.60547,-1.62695 l -0.004,-0.002 -14.67968,-10.54882 a 0.46110016,0.46110016 0 0 0 -0.0117,-0.008 c -0.9955,-0.6691 -2.19697,-0.88075 -3.31446,-0.6875 z m 18.20899,20.94336 c -0.28804,-0.0119 -0.57882,0.0136 -0.85742,0.0723 -1.11473,0.23493 -2.18492,1.02879 -2.3125,2.25976 a 0.46110016,0.46110016 0 0 0 0.004,0.12696 c 0.0311,0.17752 0.14263,0.30962 0.24219,0.38672 0.0996,0.0771 0.19793,0.11887 0.29688,0.15234 0.19789,0.0669 0.41072,0.0978 0.65429,0.11523 0.48714,0.0348 1.08337,0.005 1.67774,-0.082 0.59436,-0.0868 1.17894,-0.22698 1.65039,-0.44922 0.23572,-0.11112 0.44914,-0.24079 0.61914,-0.43359 0.17,-0.1928 0.28932,-0.48961 0.23828,-0.78125 a 0.46110016,0.46110016 0 0 0 -0.0527,-0.14258 c -0.45243,-0.81654 -1.29605,-1.18893 -2.16016,-1.22461 z m -7.21484,0.29102 -0.0254,0.0273 c 3.6e-4,0.001 -0.0106,-0.0104 -0.01,-0.008 0.008,0.0267 -0.0212,0.0625 0.0352,-0.0195 z m 4.17382,2.97851 a 0.46110016,0.46110016 0 0 0 -0.37695,0.17579 c -0.33939,0.43158 -0.50435,0.88005 -0.47461,1.30468 0.0297,0.42463 0.26914,0.79321 0.5918,1.01172 0.64532,0.43703 1.60105,0.37355 2.3457,-0.25976 a 0.46110016,0.46110016 0 0 0 0.0801,-0.0898 c 0.1609,-0.23279 0.16776,-0.50039 0.10937,-0.73828 -0.0584,-0.23789 -0.18729,-0.46469 -0.3789,-0.66797 -0.38323,-0.40655 -1.02129,-0.71167 -1.89649,-0.73633 z" />
          <path
             style="fill:#1368ff;fill-opacity:1;stroke-width:0.264583;filter:url(#filter2957)"
             inkscape:connector-curvature="0"
             id="path2313"
             d="m 102.90636,147.16919 c -1.00691,0.17419 -1.93933,0.71428 -2.53228,1.58003 l -9.865546,14.40028 c -3.18033,5.7388 3.54084,3.95964 6.71944,4.89597 1.237,0.88893 -3.69526,2.56796 -2.45811,3.45777 1.237,0.8889 6.706176,0.95575 7.944966,1.84435 1.237,0.88891 -1.76089,2.58656 -0.52389,3.47547 1.23701,0.88891 3.48616,-0.55204 4.37391,1.8445 0.63348,1.71273 4.50677,-0.005 6.23367,-1.80075 0.86143,-1.25708 -2.17752,-0.62143 -1.31593,-1.87762 2.14236,-3.12506 4.8693,-1.85119 5.29412,-4.6812 0.20978,-1.39842 -4.19809,-1.36479 -3.3347,-2.62128 2.71049,-2.29151 12.94467,-5.26525 7.12689,-9.35001 l -14.6846,-10.55182 c -0.88968,-0.59798 -1.971,-0.78983 -2.97794,-0.61569 z m 17.36886,21.01244 c -0.97139,0.20472 -1.84769,0.8726 -1.94953,1.85523 0.10676,0.61008 4.67196,0.2232 4.47,-0.93076 -0.48243,-0.87069 -1.54907,-1.12916 -2.52047,-0.92447 z m -20.330726,6.28502 c -1.34951,0.31079 -2.63868,1.55206 -1.30015,2.35539 1.2256,0.73417 2.668356,-0.70278 2.936436,-2.07359 -0.39726,-0.37187 -1.02288,-0.42306 -1.636286,-0.2818 z m 18.037016,-3.07796 c -1.15681,1.47103 0.58762,2.45272 1.80099,1.42077 0.24792,-0.35869 -0.24912,-1.37706 -1.80099,-1.42077 z"
             sodipodi:nodetypes="ccccccsccccccccsccssccsccc" />
        </g>
        <path
           style="fill:#79b1ff;fill-opacity:1;stroke-width:0.264583"
           inkscape:connector-curvature="0"
           id="path2572"
           d="m 103.21909,148.32056 c 0.71933,-0.12183 1.48261,0.0216 2.08974,0.45374 l 5.59938,3.99659 c 0.53147,0.38179 0.68151,1.2755 0.47417,1.57638 l -2.69137,-1.47532 0.0252,2.87784 -2.15475,-0.69627 -2.80922,2.54867 -1.78183,-4.02413 -1.18326,3.23307 -2.593996,0.45397 c -1.05735,0.18505 -1.41654,-1.1353 -0.62394,-2.26417 1.36114,-2.10513 2.963786,-4.28818 3.823146,-5.54122 0.43191,-0.62967 1.1074,-1.01717 1.82673,-1.13915 z m -2.42143,19.78587 c 0.35605,0.14328 5.38594,0.27997 6.60744,0.26902 0.42667,0.0148 0.20911,0.48994 -0.30793,0.87545 -1.2197,0.5638 -7.864956,-0.8705 -6.29951,-1.14447 z"
           sodipodi:nodetypes="ccccccccccsccccccc" />
        <path
           d="m 113.6419,158.42536 c 1.82338,1.83135 4.67255,-1.33171 5.40688,-2.5137 0.65569,-1.04542 0.27587,-2.07957 -0.0332,-3.09651 -0.65336,-1.91824 -1.15504,-3.588 -2.73363,-4.00643 -1.95665,-0.54641 -1.69616,1.48918 -1.34034,2.6118 0.43483,1.37191 1.14886,3.09653 -0.0551,4.03077 -0.76837,0.59624 -2.49967,1.8211 -1.24466,2.97407 z"
           id="path947"
           stroke="#001026"
           stroke-width="0.458739"
           fill="#ffab19"
           stroke-linecap="round"
           stroke-linejoin="round"
           style="fill-rule:evenodd"
           sodipodi:nodetypes="ccccssc" />
        <g
           id="g1248"
           transform="matrix(3.5976752,-1.2522172,1.2522172,3.5976752,-672.05632,-139.22327)">
          <path
             class="cls-1"
             d="m 167.50313,131.29732 a 1.7039166,1.7039166 0 0 1 2.03464,0 v 0 a 1.7039166,1.7039166 0 0 0 2.03465,0 v 2.75166 a 1.7039166,1.7039166 0 0 1 -2.03465,0 v 0 a 1.7039166,1.7039166 0 0 0 -2.03464,0"
             id="path1229"
             style="stroke:#196b13;stroke-width:0.264583;stroke-opacity:1" />
          <path
             id="line1231"
             style="fill:#4cbf56;stroke:#196b13;stroke-width:0.396875px;stroke-linecap:round;stroke-linejoin:round;stroke-opacity:1"
             d="m 167.50313,138.7841 v -7.81752"
             class="cls-2"
             sodipodi:nodetypes="cc" />
        </g>
      </g>
    </g>
    <g
       id="g2645"
       transform="matrix(3.7795276,0,0,3.7795276,-10.837131,6.5789843e-7)"
       style="fill:#ffffff"
       inkscape:transform-center-x="-158.21049"
       inkscape:transform-center-y="51.980811">
      <text
         xml:space="preserve"
         style="font-style:normal;font-variant:normal;font-weight:normal;font-stretch:normal;font-size:7.77309px;line-height:1.25;font-family:'TeX Gyre Schola';-inkscape-font-specification:'TeX Gyre Schola';fill:#ffffff;fill-opacity:1;stroke:#000000;stroke-width:1.05833;stroke-linejoin:round;stroke-miterlimit:4;stroke-dasharray:none"
         x="9.1608372"
         y="10.188621"
         id="text2629"><tspan
           sodipodi:role="line"
           id="tspan2627"
           x="9.1608372"
           y="10.188621"
           style="font-style:normal;font-variant:normal;font-weight:bold;font-stretch:normal;font-family:'TeX Gyre Schola';-inkscape-font-specification:'TeX Gyre Schola Bold';fill:#ffffff;fill-opacity:1;stroke:#000000;stroke-width:1.05833;stroke-linejoin:round;stroke-miterlimit:4;stroke-dasharray:none">INKSCAPE FROM </tspan><tspan
           sodipodi:role="line"
           x="9.1608372"
           y="23.150076"
           style="font-style:normal;font-variant:normal;font-weight:bold;font-stretch:normal;font-size:11.2889px;font-family:'TeX Gyre Schola';-inkscape-font-specification:'TeX Gyre Schola Bold';fill:#ffffff;fill-opacity:1;stroke:#000000;stroke-width:1.05833;stroke-linejoin:round;stroke-miterlimit:4;stroke-dasharray:none"
           id="tspan2633">SCRATCH</tspan></text>
      <text
         xml:space="preserve"
         style="font-style:normal;font-variant:normal;font-weight:normal;font-stretch:normal;font-size:7.77309px;line-height:1.25;font-family:'TeX Gyre Schola';-inkscape-font-specification:'TeX Gyre Schola';fill:#ffffff;fill-opacity:1;stroke:none;stroke-width:0.194327"
         x="9.1608372"
         y="9.9158688"
         id="text2623"><tspan
           sodipodi:role="line"
           id="tspan2621"
           x="9.1608372"
           y="9.9158688"
           style="font-style:normal;font-variant:normal;font-weight:bold;font-stretch:normal;font-family:'TeX Gyre Schola';-inkscape-font-specification:'TeX Gyre Schola Bold';fill:#ffffff;fill-opacity:1;stroke-width:0.194327">INKSCAPE FROM </tspan><tspan
           sodipodi:role="line"
           x="9.1608372"
           y="22.877325"
           style="font-style:normal;font-variant:normal;font-weight:bold;font-stretch:normal;font-size:11.2889px;font-family:'TeX Gyre Schola';-inkscape-font-specification:'TeX Gyre Schola Bold';fill:#ffffff;fill-opacity:1;stroke-width:0.194327"
           id="tspan2631">SCRATCH</tspan></text>
    </g>
    <text
       xml:space="preserve"
       style="font-style:normal;font-weight:normal;font-size:120.158px;line-height:1.25;font-family:sans-serif;text-align:end;text-anchor:end;fill:#ffd42a;fill-opacity:1;stroke:#000000;stroke-width:7.55906;stroke-linejoin:round;stroke-miterlimit:4;stroke-dasharray:none;stroke-opacity:1;paint-order:markers stroke fill"
       x="456.30008"
       y="86.031487"
       id="text2637"
       inkscape:transform-center-x="-416.76826"
       inkscape:transform-center-y="52.567485"><tspan
         sodipodi:role="line"
         id="tspan2635"
         x="456.30008"
         y="86.031487"
         style="font-style:normal;font-variant:normal;font-weight:bold;font-stretch:normal;font-family:'Black boys on mopeds';-inkscape-font-specification:'Black boys on mopeds Bold';text-align:end;text-anchor:end;fill:#ffd42a;fill-opacity:1;stroke:#000000;stroke-width:7.55906;stroke-linejoin:round;stroke-miterlimit:4;stroke-dasharray:none;stroke-opacity:1;paint-order:markers stroke fill">#1</tspan></text>
    <rect
       style="fill:url(#pattern4013);stroke:none;stroke-width:0.999999"
       width="135.71873"
       height="135.71873"
       x="-169.27036"
       y="224.28127"
       id="rect3049"
       inkscape:transform-center-x="101.41099"
       inkscape:transform-center-y="292.14063" />
    <text
       xml:space="preserve"
       style="font-style:normal;font-weight:normal;font-size:53.3332px;line-height:0.9;font-family:sans-serif;fill:#ffd42a;fill-opacity:1;stroke:#000000;stroke-width:4;stroke-linejoin:round;stroke-miterlimit:4;stroke-dasharray:none;paint-order:stroke markers fill"
       x="22.812351"
       y="164.26086"
       id="text4020"><tspan
         sodipodi:role="line"
         id="tspan4018"
         x="22.812351"
         y="164.26086"
         style="font-style:normal;font-variant:normal;font-weight:bold;font-stretch:normal;font-size:53.3332px;font-family:Raleway;-inkscape-font-specification:'Raleway Bold';fill:#ffd42a;stroke:#000000;stroke-width:4;stroke-linejoin:round;stroke-miterlimit:4;stroke-dasharray:none;paint-order:stroke markers fill">CLICKBAIT</tspan><tspan
         sodipodi:role="line"
         x="22.812351"
         y="212.58932"
         style="font-style:normal;font-variant:normal;font-weight:bold;font-stretch:normal;font-size:53.3332px;font-family:Raleway;-inkscape-font-specification:'Raleway Bold';fill:#ffd42a;stroke:#000000;stroke-width:4;stroke-linejoin:round;stroke-miterlimit:4;stroke-dasharray:none;paint-order:stroke markers fill"
         id="tspan4024">TEXT GOES</tspan><tspan
         sodipodi:role="line"
         x="22.812351"
         y="260.91779"
         style="font-style:normal;font-variant:normal;font-weight:bold;font-stretch:normal;font-size:53.3332px;font-family:Raleway;-inkscape-font-specification:'Raleway Bold';fill:#ffd42a;stroke:#000000;stroke-width:4;stroke-linejoin:round;stroke-miterlimit:4;stroke-dasharray:none;paint-order:stroke markers fill"
         id="tspan4026">HERE</tspan></text>
  </g>
  <style
     type="text/css"
     id="style26">
	.specularity {opacity:0.5;}
	.low-specularity {opacity:0.25;}
	.full-specularity {opacity:1;}
	.black {fill:#000000;}
	.white {fill:#ffffff;}
	.outline-big {stroke-width:16;stroke:none;opacity:0.1;fill:none;}
	.outline-small {stroke-width:8;stroke:none;opacity:0.2;fill:none;}
	.stroke-highlight {fill:none;stroke:none;opacity:0.2;}
       	.base-shadow 	{fill:black;opacity:75;}
	</style>
  <style
     type="text/css"
     id="style26-5">
	.specularity {opacity:0.5;}
	.low-specularity {opacity:0.25;}
	.full-specularity {opacity:1;}
	.black {fill:#000000;}
	.white {fill:#ffffff;}
	.outline-big {stroke-width:16;stroke:none;opacity:0.1;fill:none;}
	.outline-small {stroke-width:8;stroke:none;opacity:0.2;fill:none;}
	.stroke-highlight {fill:none;stroke:none;opacity:0.2;}
       	.base-shadow 	{fill:black;opacity:75;}
	</style>
  <style
     type="text/css"
     id="style26-9">
	.specularity {opacity:0.5;}
	.low-specularity {opacity:0.25;}
	.full-specularity {opacity:1;}
	.black {fill:#000000;}
	.white {fill:#ffffff;}
	.outline-big {stroke-width:16;stroke:none;opacity:0.1;fill:none;}
	.outline-small {stroke-width:8;stroke:none;opacity:0.2;fill:none;}
	.stroke-highlight {fill:none;stroke:none;opacity:0.2;}
       	.base-shadow 	{fill:black;opacity:75;}
	</style>
</svg>
